<?xml version="1.0" encoding="UTF-8" standalone="no"?>
<!-- Created with Inkscape (http://www.inkscape.org/) -->

<svg
   xmlns:dc="http://purl.org/dc/elements/1.1/"
   xmlns:cc="http://creativecommons.org/ns#"
   xmlns:rdf="http://www.w3.org/1999/02/22-rdf-syntax-ns#"
   xmlns:svg="http://www.w3.org/2000/svg"
   xmlns="http://www.w3.org/2000/svg"
   xmlns:sodipodi="http://sodipodi.sourceforge.net/DTD/sodipodi-0.dtd"
   xmlns:inkscape="http://www.inkscape.org/namespaces/inkscape"
   width="210mm"
   height="297mm"
   viewBox="0 0 210 297"
   version="1.1"
   id="svg285"
   inkscape:version="0.92.4 (f8dce91, 2019-08-02)"
   sodipodi:docname="wR.svg">
  <defs
     id="defs279" />
  <sodipodi:namedview
     id="base"
     pagecolor="#ffffff"
     bordercolor="#666666"
     borderopacity="1.0"
     inkscape:pageopacity="0.0"
     inkscape:pageshadow="2"
     inkscape:zoom="0.35"
     inkscape:cx="400"
     inkscape:cy="560"
     inkscape:document-units="mm"
     inkscape:current-layer="layer1"
     showgrid="false"
     inkscape:window-width="1533"
     inkscape:window-height="845"
     inkscape:window-x="67"
     inkscape:window-y="27"
     inkscape:window-maximized="1" />
  <metadata
     id="metadata282">
    <rdf:RDF>
      <cc:Work
         rdf:about="">
        <dc:format>image/svg+xml</dc:format>
        <dc:type
           rdf:resource="http://purl.org/dc/dcmitype/StillImage" />
        <dc:title></dc:title>
      </cc:Work>
    </rdf:RDF>
  </metadata>
  <g
     inkscape:label="Calque 1"
     inkscape:groupmode="layer"
     id="layer1">
    <path
       inkscape:connector-curvature="0"
       d="m 167.47998,77.794201 h -30.05603 c -1.20646,0 -2.28054,0.860781 -2.49717,2.066949 l -5.81263,29.15084 h -4.69343 l 3.35761,-28.376928 c 0.0962,-0.731362 -0.1294,-1.462887 -0.64386,-1.98008 -0.47535,-0.559642 -1.16432,-0.860781 -1.89541,-0.860781 H 84.632704 c -0.731996,0 -1.420968,0.301139 -1.894824,0.860781 -0.473557,0.559738 -0.731997,1.291118 -0.64595,1.98008 l 3.358815,28.376928 H 80.886379 L 75.11616,79.816873 C 74.858019,78.612408 73.824562,77.749989 72.61871,77.749989 H 42.562663 c -0.77502,0 -1.507014,0.345351 -2.023593,0.991783 -0.473857,0.602174 -0.645949,1.420395 -0.473857,2.194414 l 12.74599,50.769724 c 0.301463,1.11921 1.291598,1.93755 2.454427,1.93755 h 4.176858 l 9.731359,20.66914 c 0.430833,0.90258 1.334922,1.46218 2.325357,1.46218 h 5.51178 c -0.645949,26.39753 -11.497114,37.46319 -21.099404,47.28028 -6.2868,6.41735 -12.186089,12.4436 -13.176523,21.61684 -1.679408,15.50035 6.071382,21.78834 9.645312,23.81313 v 15.9757 c 0,1.42008 1.162829,2.53927 2.540775,2.53927 H 155.20786 c 1.42006,0 2.54227,-1.16132 2.54227,-2.53927 v -15.9757 c 3.5291,-2.02479 11.32442,-8.35489 9.64561,-23.81313 -0.99284,-9.17324 -6.93485,-15.24462 -13.17772,-21.61684 -9.60349,-9.81709 -20.45256,-20.88275 -21.09941,-47.28028 h 5.51178 c 0.98983,0 1.89543,-0.5596 2.32566,-1.46218 l 9.72985,-20.66914 h 4.17897 c 1.16133,0 2.19629,-0.77622 2.45202,-1.93755 l 12.61813,-50.769724 c 0.17149,-0.774019 0,-1.54968 -0.47235,-2.194414 -0.47537,-0.603971 -1.20647,-0.947571 -1.98269,-0.947571 z M 152.58134,261.96059 H 57.418593 v -12.4436 h 95.162747 z m -2.10905,-55.33131 c 6.1135,6.24286 10.93632,11.19503 11.75466,18.60222 1.50732,13.82155 -5.85477,18.30136 -7.62082,19.16183 H 55.3947 c -1.722432,-0.81835 -9.128735,-5.29515 -7.62172,-19.16183 0.818341,-7.44931 5.640848,-12.35936 11.755554,-18.60222 9.774683,-9.98858 21.874424,-22.30581 22.563396,-50.8545 h 45.85788 c 0.64686,28.50656 12.74751,40.86592 22.52248,50.8545 z m -13.52071,-55.97816 h -6.5016 -50.898523 -6.501915 l -8.009229,-17.00766 h 79.878077 z m 15.80125,-22.0892 H 148.96498 61.035549 57.2462 L 45.792408,82.875706 h 24.716361 l 5.770219,29.193024 c 0.258439,1.20646 1.291898,2.06692 2.49745,2.06692 h 9.645654 c 0.731921,0 1.420872,-0.30087 1.894823,-0.86046 0.473291,-0.5596 0.731821,-1.29069 0.645441,-1.97967 L 87.60371,82.918078 h 34.83433 l -3.35761,28.377442 c -0.0962,0.73109 0.1294,1.46219 0.64685,1.97967 0.47235,0.55959 1.16133,0.86046 1.89542,0.86046 h 9.64561 c 1.20346,0 2.28054,-0.86046 2.49715,-2.06692 l 5.76751,-29.193024 h 24.71878 z"
       id="path101"
       style="stroke-width:0.43059888;fill:#333333" />
    <path
       style="fill:#cccccc;stroke-width:2.85714293"
       d="m 216.86328,481.25547 c -1.66763,-4.75682 -41.43471,-164.43492 -41.43471,-166.37418 0,-0.82745 20.25,-1.50446 45,-1.50446 h 45 l 10.93517,56.7923 c 6.01433,31.23577 12.37862,58.23577 14.14285,60 1.8151,1.8151 12.73101,3.2077 25.14357,3.2077 31.17827,0 30.61919,1.27025 24.31791,-55.25094 -2.83148,-25.3977 -5.82228,-50.3562 -6.64622,-55.46335 l -1.49809,-9.28571 h 65.02471 65.02473 l -1.60469,10.71428 c -0.8826,5.89286 -3.84837,30.8768 -6.59066,55.51986 -6.11581,54.95864 -6.66173,53.76586 24.60786,53.76586 14.25618,0 23.20386,-1.27356 25.09189,-3.57143 1.61394,-1.96429 7.9356,-28.64286 14.04811,-59.28571 l 11.11366,-55.71429 44.87317,-0.78684 c 24.68026,-0.43276 44.87317,0.22143 44.87317,1.45374 0,1.23232 -9.43594,39.51497 -20.96874,85.07255 l -20.96874,82.83198 -179.11268,0.73578 c -141.81891,0.58258 -179.37494,-0.0123 -180.37227,-2.85714 z"
       id="path312"
       inkscape:connector-curvature="0"
       transform="scale(0.26458333)" />
    <path
       style="fill:#cccccc;stroke-width:2.85714293"
       d="m 263.70307,540.10632 c -6.90812,-15.15593 -12.98878,-28.65593 -13.51259,-30 -0.52381,-1.34408 65.47619,-2.44378 146.66666,-2.44378 81.19048,0 147.19049,1.0997 146.66666,2.44378 -0.5238,1.34407 -6.60446,14.84407 -13.51257,30 L 517.451,567.66254 H 396.85714 276.26328 Z"
       id="path314"
       inkscape:connector-curvature="0"
       transform="scale(0.26458333)" />
    <path
       style="fill:#cccccc;stroke-width:2.85714293"
       d="m 200.40786,915.19797 c -13.80316,-12.79234 -17.78832,-24.09251 -17.77165,-50.39257 0.0203,-32.09686 5.91994,-43.11974 45.87381,-85.71108 53.69843,-57.24322 74.86998,-98.81107 79.92212,-156.91771 0.89901,-10.33988 2.22262,-21.69264 2.94136,-25.22835 l 1.3068,-6.42857 h 84.17684 84.17686 l 1.30677,6.42857 c 0.71874,3.53571 2.04237,14.88847 2.94137,25.22835 5.05215,58.10664 26.22369,99.67449 79.92212,156.91771 39.95388,42.59134 45.85348,53.61422 45.87383,85.71108 0.0171,26.30006 -3.96852,37.60023 -17.77166,50.39257 l -7.28372,6.75029 H 396.85714 207.69156 Z"
       id="path316"
       inkscape:connector-curvature="0"
       transform="scale(0.26458333)" />
    <path
       style="fill:#cccccc;stroke-width:2.85714293"
       d="M 218.28571,966.23397 V 944.8054 h 178.57143 178.57143 v 21.42857 21.42857 H 396.85714 218.28571 Z"
       id="path320"
       inkscape:connector-curvature="0"
       transform="scale(0.26458333)" />
  </g>
</svg>
